<?xml version="1.0" encoding="UTF-8"?>
<svg width="21px" height="21px" viewBox="0 0 21 21" version="1.1" xmlns="http://www.w3.org/2000/svg" xmlns:xlink="http://www.w3.org/1999/xlink">
    <!-- Generator: Sketch 58 (84663) - https://sketch.com -->
    <title>close-icon</title>
    <desc>Created with Sketch.</desc>
    <g id="Page-1" stroke="none" stroke-width="1" fill="none" fill-rule="evenodd">
        <g id="Artboard" transform="translate(-133.000000, -264.000000)" fill="#FFFFFF" fill-rule="nonzero" stroke="#FFFFFF">
            <path d="M134.394826,265.394826 C134.92126,264.868391 135.774778,264.868391 136.301212,265.394826 L136.301212,265.394826 L143.5,272.593 L150.698788,265.394826 C151.190126,264.903487 151.966391,264.870731 152.49572,265.296558 L152.605174,265.394826 C153.131609,265.92126 153.131609,266.774778 152.605174,267.301212 L152.605174,267.301212 L145.407,274.5 L152.605174,281.698788 C153.096513,282.190126 153.129269,282.966391 152.703442,283.49572 L152.605174,283.605174 C152.07874,284.131609 151.225222,284.131609 150.698788,283.605174 L150.698788,283.605174 L143.5,276.407 L136.301212,283.605174 C135.809874,284.096513 135.033609,284.129269 134.50428,283.703442 L134.394826,283.605174 C133.868391,283.07874 133.868391,282.225222 134.394826,281.698788 L134.394826,281.698788 L141.593,274.5 L134.394826,267.301212 C133.903487,266.809874 133.870731,266.033609 134.296558,265.50428 Z" id="close-icon"></path>
        </g>
    </g>
</svg>