<?xml version="1.0" encoding="UTF-8"?>
<svg width="22px" height="17px" viewBox="0 0 22 17" version="1.1" xmlns="http://www.w3.org/2000/svg" xmlns:xlink="http://www.w3.org/1999/xlink">
    <!-- Generator: Sketch 58 (84663) - https://sketch.com -->
    <title>icon_mail</title>
    <desc>Created with Sketch.</desc>
    <g id="Page-1" stroke="none" stroke-width="1" fill="none" fill-rule="evenodd" opacity="0.6">
        <g id="Artboard" transform="translate(-54.000000, -279.000000)" fill="#27577D">
            <path d="M65,289.5611 L62.72025,287.614702 L54.7665625,296 L75.0313125,296 L67.2240625,287.600541 L65,289.5611 L65,289.5611 Z M68.361875,286.710537 L75.92575,294.809788 C75.9690625,294.652603 76,294.489754 76,294.317701 L76,280.318367 L68.361875,286.710537 L68.361875,286.710537 Z M54,280.285798 L54,294.317701 C54,294.489754 54.0309375,294.652603 54.07425,294.809788 L61.6635625,286.736735 L54,280.285798 L54,280.285798 Z M75.3125,279 L54.6875,279 L65,287.509913 L75.3125,279 L75.3125,279 Z" id="icon_mail"></path>
        </g>
    </g>
</svg>